Dr. Jihong Zhang - Which Country own the most Liberty Nobel Prizes? France? Ireland?
…
nobel_countries <- 
  nobel_winners %>% 
  filter(birth_country %in% countries, category == "Literature") %>% 
  select(prize_year, birth_country) %>% 
  arrange(prize_year) %>% 
  group_by(birth_country) %>% 
  mutate(n_prize = n(),
         first_prize = min(prize_year),
         last_prize = max(prize_year),
         cum = row_number()
  ) %>% 
  ungroup()
nobel_countries

# A tibble: 58 × 6
   prize_year birth_country n_prize first_prize last_prize   cum
        <dbl> <chr>           <int>       <dbl>      <dbl> <int>
 1       1901 France             11        1901       2014     1
 2       1904 France             11        1901       2014     2
 3       1904 Spain               5        1904       1989     1
 4       1909 Sweden              7        1909       2011     1
 5       1915 France             11        1901       2014     3
 6       1916 Sweden              7        1909       2011     2
 7       1917 Denmark             4        1917       1944     1
 8       1917 Denmark             4        1917       1944     2
 9       1921 France             11        1901       2014     4
10       1922 Spain               5        1904       1989     2
# … with 48 more rows

nobel_countries <- 
  nobel_countries %>% 
  filter(cum == 1) %>% 
  mutate(cum = 0) %>% 
  bind_rows(nobel_countries) %>% 
  arrange(prize_year, cum) %>% 
  mutate(birth_country = fct_reorder(birth_country, n_prize, .desc = TRUE))
nobel_countries

# A tibble: 68 × 6
   prize_year birth_country n_prize first_prize last_prize   cum
        <dbl> <fct>           <int>       <dbl>      <dbl> <dbl>
 1       1901 France             11        1901       2014     0
 2       1901 France             11        1901       2014     1
 3       1904 Spain               5        1904       1989     0
 4       1904 Spain               5        1904       1989     1
 5       1904 France             11        1901       2014     2
 6       1909 Sweden              7        1909       2011     0
 7       1909 Sweden              7        1909       2011     1
 8       1915 France             11        1901       2014     3
 9       1916 Sweden              7        1909       2011     2
10       1917 Denmark             4        1917       1944     0
# … with 58 more rows
…
